{
    "key": "group_60bc8097d9dcb",
    "title": "גלריה",
    "fields": [
        {
            "key": "field_60bc80a6ac72b",
            "label": "פרויקט",
            "name": "project_item",
            "type": "repeater",
            "instructions": "",
            "required": 0,
            "conditional_logic": 0,
            "wrapper": {
                "width": "",
                "class": "",
                "id": ""
            },
            "collapsed": "",
            "min": 0,
            "max": 0,
            "layout": "block",
            "button_label": "",
            "sub_fields": [
                {
                    "key": "field_60bc80bcac72c",
                    "label": "טקסט",
                    "name": "project_content",
                    "type": "wysiwyg",
                    "instructions": "",
                    "required": 0,
                    "conditional_logic": 0,
                    "wrapper": {
                        "width": "",
                        "class": "",
                        "id": ""
                    },
                    "default_value": "",
                    "tabs": "all",
                    "toolbar": "full",
                    "media_upload": 1,
                    "delay": 0
                },
                {
                    "key": "field_60bc80d6ac72d",
                    "label": "תמונות",
                    "name": "project_photos",
                    "type": "gallery",
                    "instructions": "",
                    "required": 0,
                    "conditional_logic": 0,
                    "wrapper": {
                        "width": "",
                        "class": "",
                        "id": ""
                    },
                    "return_format": "array",
                    "preview_size": "large",
                    "insert": "append",
                    "library": "all",
                    "min": "",
                    "max": "",
                    "min_width": "",
                    "min_height": "",
                    "min_size": "",
                    "max_width": "",
                    "max_height": "",
                    "max_size": "",
                    "mime_types": ""
                },
                {
                    "key": "field_60bc812c031b7",
                    "label": "גלריה",
                    "name": "project_gal_item",
                    "type": "flexible_content",
                    "instructions": "",
                    "required": 0,
                    "conditional_logic": 0,
                    "wrapper": {
                        "width": "",
                        "class": "",
                        "id": ""
                    },
                    "layouts": {
                        "layout_60bba54e24b8a": {
                            "key": "layout_60bba54e24b8a",
                            "name": "home_gal_img",
                            "label": "תמונה",
                            "display": "block",
                            "sub_fields": [
                                {
                                    "key": "field_60bc812c031b8",
                                    "label": "תמונה",
                                    "name": "gal_img",
                                    "type": "image",
                                    "instructions": "",
                                    "required": 0,
                                    "conditional_logic": 0,
                                    "wrapper": {
                                        "width": "",
                                        "class": "",
                                        "id": ""
                                    },
                                    "return_format": "array",
                                    "preview_size": "large",
                                    "library": "all",
                                    "min_width": "",
                                    "min_height": "",
                                    "min_size": "",
                                    "max_width": "",
                                    "max_height": "",
                                    "max_size": "",
                                    "mime_types": ""
                                }
                            ],
                            "min": "",
                            "max": ""
                        },
                        "layout_60bba571d9f15": {
                            "key": "layout_60bba571d9f15",
                            "name": "home_gal_video",
                            "label": "קישור לוידאו",
                            "display": "block",
                            "sub_fields": [
                                {
                                    "key": "field_60bc812c031b9",
                                    "label": "קישור לוידאו",
                                    "name": "gal_video",
                                    "type": "url",
                                    "instructions": "",
                                    "required": 0,
                                    "conditional_logic": 0,
                                    "wrapper": {
                                        "width": "",
                                        "class": "",
                                        "id": ""
                                    },
                                    "default_value": "",
                                    "placeholder": ""
                                }
                            ],
                            "min": "",
                            "max": ""
                        }
                    },
                    "button_label": "Add Row",
                    "min": "",
                    "max": ""
                }
            ]
        }
    ],
    "location": [
        [
            {
                "param": "page_template",
                "operator": "==",
                "value": "views\/gallery.php"
            }
        ]
    ],
    "menu_order": 0,
    "position": "normal",
    "style": "default",
    "label_placement": "top",
    "instruction_placement": "label",
    "hide_on_screen": "",
    "active": true,
    "description": "",
    "modified": 1622966642
}